[
{
"acceleration": -2.9999999999999996,
"curvature": -0.0,
"pose": {
"rotation": {
"radians": 3.141592653589793
},
"translation": {
"x": 1.634,
"y": 2.707
}
},
"time": 0.0,
"velocity": -0.0
},
{
"acceleration": -3.000000000000001,
"curvature": -0.0,
"pose": {
"rotation": {
"radians": 3.141592653589793
},
"translation": {
"x": 1.702857494354248,
"y": 2.707
}
},
"time": 0.21425451275566038,
"velocity": -0.6427635382669811
},
{
"acceleration": -3.0000000000000018,
"curvature": -0.0,
"pose": {
"rotation": {
"radians": 3.141592653589793
},
"translation": {
"x": 1.8050057373046875,
"y": 2.707
}
},
"time": 0.33764452441849513,
"velocity": -1.0129335732554854
},
{
"acceleration": -3.0000000000000013,
"curvature": -0.0,
"pose": {
"rotation": {
"radians": 3.141592653589793
},
"translation": {
"x": 1.8755566891431807,
"y": 2.707
}
},
"time": 0.4012951442045126,
"velocity": -1.203885432613538
},
{
"acceleration": -3.000000000000001,
"curvature": -0.0,
"pose": {
"rotation": {
"radians": 3.141592653589793
},
"translation": {
"x": 1.961271945953369,
"y": 2.707
}
},
"time": 0.46709880892831024,
"velocity": -1.4012964267849308
},
{
"acceleration": -3.0,
"curvature": -0.0,
"pose": {
"rotation": {
"radians": 3.141592653589793
},
"translation": {
"x": 2.0629253536462784,
"y": 2.707
}
},
"time": 0.5347431493382461,
"velocity": -1.6042294480147383
},
{
"acceleration": -2.9999999999999964,
"curvature": -0.0,
"pose": {
"rotation": {
"radians": 3.141592653589793
},
"translation": {
"x": 2.1806757812499997,
"y": 2.707
}
},
"time": 0.6036973752082522,
"velocity": -1.8110921256247567
},
{
"acceleration": -2.411667557640459,
"curvature": -0.0,
"pose": {
"rotation": {
"radians": 3.141592653589793
},
"translation": {
"x": 2.245484000544995,
"y": 2.707
}
},
"time": 0.6384794439630223,
"velocity": -1.9154383318890669
},
{
"acceleration": -0.0,
"curvature": -0.0,
"pose": {
"rotation": {
"radians": 3.141592653589793
},
"translation": {
"x": 2.314128618597984,
"y": 2.707
}
},
"time": 0.6735430114282109,
"velocity": -2.0
},
{
"acceleration": -0.0,
"curvature": -0.0,
"pose": {
"rotation": {
"radians": 3.141592653589793
},
"translation": {
"x": 2.386483917478472,
"y": 2.707
}
},
"time": 0.7097206608684549,
"velocity": -2.0
},
{
"acceleration": -0.0,
"curvature": -0.0,
"pose": {
"rotation": {
"radians": 3.141592653589793
},
"translation": {
"x": 2.462397274017334,
"y": 2.707
}
},
"time": 0.7476773391378858,
"velocity": -2.0
},
{
"acceleration": -0.0,
"curvature": -0.0,
"pose": {
"rotation": {
"radians": 3.141592653589793
},
"translation": {
"x": 2.5416910816095766,
"y": 2.707
}
},
"time": 0.7873242429340072,
"velocity": -2.0
},
{
"acceleration": -0.0,
"curvature": -0.0,
"pose": {
"rotation": {
"radians": 3.141592653589793
},
"translation": {
"x": 2.624164672017097,
"y": 2.707
}
},
"time": 0.8285610381377674,
"velocity": -2.0
},
{
"acceleration": -0.0,
"curvature": -0.0,
"pose": {
"rotation": {
"radians": 3.141592653589793
},
"translation": {
"x": 2.709596237171441,
"y": 2.707
}
},
"time": 0.8712768207149394,
"velocity": -2.0
},
{
"acceleration": -0.0,
"curvature": -0.0,
"pose": {
"rotation": {
"radians": 3.141592653589793
},
"translation": {
"x": 2.7977447509765625,
"y": 2.707
}
},
"time": 0.9153510776175001,
"velocity": -2.0
},
{
"acceleration": -0.0,
"curvature": -0.0,
"pose": {
"rotation": {
"radians": 3.141592653589793
},
"translation": {
"x": 2.888351891111582,
"y": 2.707
}
},
"time": 0.9606546476850099,
"velocity": -2.0
},
{
"acceleration": -0.0,
"curvature": -0.0,
"pose": {
"rotation": {
"radians": 3.141592653589793
},
"translation": {
"x": 2.981143960833549,
"y": 2.707
}
},
"time": 1.0070506825459935,
"velocity": -2.0
},
{
"acceleration": -0.0,
"curvature": -0.0,
"pose": {
"rotation": {
"radians": 3.141592653589793
},
"translation": {
"x": 3.075833810780197,
"y": 2.707
}
},
"time": 1.0543956075193175,
"velocity": -2.0
},
{
"acceleration": -0.0,
"curvature": -0.0,
"pose": {
"rotation": {
"radians": 3.141592653589793
},
"translation": {
"x": 3.1721227607727047,
"y": 2.707
}
},
"time": 1.1025400825155713,
"velocity": -2.0
},
{
"acceleration": -0.0,
"curvature": -0.0,
"pose": {
"rotation": {
"radians": 3.141592653589793
},
"translation": {
"x": 3.2697025216184548,
"y": 2.707
}
},
"time": 1.1513299629384464,
"velocity": -2.0
},
{
"acceleration": -0.0,
"curvature": -0.0,
"pose": {
"rotation": {
"radians": 3.141592653589793
},
"translation": {
"x": 3.368257116913795,
"y": 2.707
}
},
"time": 1.2006072605861164,
"velocity": -2.0
},
{
"acceleration": -0.0,
"curvature": -0.0,
"pose": {
"rotation": {
"radians": 3.141592653589793
},
"translation": {
"x": 3.4674648048467933,
"y": 2.707
}
},
"time": 1.2502111045526156,
"velocity": -2.0
},
{
"acceleration": -0.0,
"curvature": -0.0,
"pose": {
"rotation": {
"radians": 3.141592653589793
},
"translation": {
"x": 3.5669999999999993,
"y": 2.707
}
},
"time": 1.2999787021292186,
"velocity": -2.0
},
{
"acceleration": -0.0,
"curvature": -0.0,
"pose": {
"rotation": {
"radians": 3.141592653589793
},
"translation": {
"x": 3.6665351951532066,
"y": 2.707
}
},
"time": 1.3497462997058223,
"velocity": -2.0
},
{
"acceleration": -0.0,
"curvature": -0.0,
"pose": {
"rotation": {
"radians": 3.141592653589793
},
"translation": {
"x": 3.765742883086204,
"y": 2.707
}
},
"time": 1.399350143672321,
"velocity": -2.0
},
{
"acceleration": -0.0,
"curvature": -0.0,
"pose": {
"rotation": {
"radians": 3.141592653589793
},
"translation": {
"x": 3.8642974783815434,
"y": 2.707
}
},
"time": 1.4486274413199907,
"velocity": -2.0
},
{
"acceleration": -0.0,
"curvature": -0.0,
"pose": {
"rotation": {
"radians": 3.141592653589793
},
"translation": {
"x": 3.961877239227294,
"y": 2.707
}
},
"time": 1.497417321742866,
"velocity": -2.0
},
{
"acceleration": -0.0,
"curvature": -0.0,
"pose": {
"rotation": {
"radians": 3.141592653589793
},
"translation": {
"x": 4.0581661892198015,
"y": 2.707
}
},
"time": 1.5455617967391198,
"velocity": -2.0
},
{
"acceleration": -0.0,
"curvature": -0.0,
"pose": {
"rotation": {
"radians": 3.141592653589793
},
"translation": {
"x": 4.1528560391664495,
"y": 2.707
}
},
"time": 1.5929067217124437,
"velocity": -2.0
},
{
"acceleration": -0.0,
"curvature": -0.0,
"pose": {
"rotation": {
"radians": 3.141592653589793
},
"translation": {
"x": 4.245648108888416,
"y": 2.707
}
},
"time": 1.6393027565734268,
"velocity": -2.0
},
{
"acceleration": -0.0,
"curvature": -0.0,
"pose": {
"rotation": {
"radians": 3.141592653589793
},
"translation": {
"x": 4.336255249023436,
"y": 2.707
}
},
"time": 1.684606326640937,
"velocity": -2.0
},
{
"acceleration": -0.0,
"curvature": -0.0,
"pose": {
"rotation": {
"radians": 3.141592653589793
},
"translation": {
"x": 4.4244037628285575,
"y": 2.707
}
},
"time": 1.7286805835434977,
"velocity": -2.0
},
{
"acceleration": -0.0,
"curvature": -0.0,
"pose": {
"rotation": {
"radians": 3.141592653589793
},
"translation": {
"x": 4.5098353279829,
"y": 2.707
}
},
"time": 1.771396366120669,
"velocity": -2.0
},
{
"acceleration": -0.0,
"curvature": -0.0,
"pose": {
"rotation": {
"radians": 3.141592653589793
},
"translation": {
"x": 4.592308918390421,
"y": 2.707
}
},
"time": 1.8126331613244293,
"velocity": -2.0
},
{
"acceleration": -0.0,
"curvature": -0.0,
"pose": {
"rotation": {
"radians": 3.141592653589793
},
"translation": {
"x": 4.6716027259826625,
"y": 2.707
}
},
"time": 1.8522800651205502,
"velocity": -2.0
},
{
"acceleration": -0.0,
"curvature": -0.0,
"pose": {
"rotation": {
"radians": 3.141592653589793
},
"translation": {
"x": 4.747516082521527,
"y": 2.707
}
},
"time": 1.8902367433899823,
"velocity": -2.0
},
{
"acceleration": 2.411667557640651,
"curvature": -0.0,
"pose": {
"rotation": {
"radians": 3.141592653589793
},
"translation": {
"x": 4.819871381402017,
"y": 2.707
}
},
"time": 1.9264143928302273,
"velocity": -2.0
},
{
"acceleration": 2.9999999999999964,
"curvature": -0.0,
"pose": {
"rotation": {
"radians": 3.141592653589793
},
"translation": {
"x": 4.888515999455004,
"y": 2.707
}
},
"time": 1.961477960295415,
"velocity": -1.9154383318890622
},
{
"acceleration": 2.9999999999999982,
"curvature": -0.0,
"pose": {
"rotation": {
"radians": 3.141592653589793
},
"translation": {
"x": 4.95332421875,
"y": 2.707
}
},
"time": 1.9962600290501855,
"velocity": -1.8110921256247512
},
{
"acceleration": 3.0,
"curvature": -0.0,
"pose": {
"rotation": {
"radians": 3.141592653589793
},
"translation": {
"x": 5.07107464635372,
"y": 2.707
}
},
"time": 2.0652142549201913,
"velocity": -1.6042294480147337
},
{
"acceleration": 2.9999999999999987,
"curvature": -0.0,
"pose": {
"rotation": {
"radians": 3.141592653589793
},
"translation": {
"x": 5.172728054046626,
"y": 2.707
}
},
"time": 2.132858595330125,
"velocity": -1.4012964267849333
},
{
"acceleration": 2.9999999999999982,
"curvature": -0.0,
"pose": {
"rotation": {
"radians": 3.141592653589793
},
"translation": {
"x": 5.258443310856817,
"y": 2.707
}
},
"time": 2.1986622600539247,
"velocity": -1.2038854326135333
},
{
"acceleration": 3.0,
"curvature": -0.0,
"pose": {
"rotation": {
"radians": 3.141592653589793
},
"translation": {
"x": 5.328994262695311,
"y": 2.707
}
},
"time": 2.2623128798399423,
"velocity": -1.01293357325548
},
{
"acceleration": 3.0000000000000004,
"curvature": -0.0,
"pose": {
"rotation": {
"radians": 3.141592653589793
},
"translation": {
"x": 5.431142505645749,
"y": 2.707
}
},
"time": 2.385702891502776,
"velocity": -0.6427635382669791
},
{
"acceleration": 3.0000000000000004,
"curvature": -0.0,
"pose": {
"rotation": {
"radians": 3.141592653589793
},
"translation": {
"x": 5.4999999999999964,
"y": 2.707
}
},
"time": 2.5999574042584355,
"velocity": -0.0
}
]