[
{
"acceleration": -2.9999999999999996,
"curvature": -0.0,
"pose": {
"rotation": {
"radians": 3.141592653589793
},
"translation": {
"x": 1.6336806451768353,
"y": 2.707
}
},
"time": 0.0,
"velocity": -0.0
},
{
"acceleration": -3.0,
"curvature": 0.0008973042718574814,
"pose": {
"rotation": {
"radians": 3.141553559051724
},
"translation": {
"x": 1.6992114782488479,
"y": 2.7069990395304657
}
},
"time": 0.20901488476350397,
"velocity": -0.6270446542905118
},
{
"acceleration": -3.0000000000000013,
"curvature": 0.0006437780575599336,
"pose": {
"rotation": {
"radians": 3.14148838781328
},
"translation": {
"x": 1.7806131397031104,
"y": 2.706993049603099
}
},
"time": 0.3129776293962,
"velocity": -0.9389328881886
},
{
"acceleration": -3.0,
"curvature": 0.0003329276465922061,
"pose": {
"rotation": {
"radians": 3.1414381574184924
},
"translation": {
"x": 1.8878146699561045,
"y": 2.7069788837097954
}
},
"time": 0.41160986863991406,
"velocity": -1.2348296059197423
},
{
"acceleration": -3.0000000000000044,
"curvature": 0.00023545327929024447,
"pose": {
"rotation": {
"radians": 3.1414199859590037
},
"translation": {
"x": 1.952628361015535,
"y": 2.706968247392342
}
},
"time": 0.461120170797753,
"velocity": -1.3833605123932593
},
{
"acceleration": -2.9999999999999973,
"curvature": 0.00016744479107597238,
"pose": {
"rotation": {
"radians": 3.141405575595956
},
"translation": {
"x": 2.025116047140952,
"y": 2.706955179189565
}
},
"time": 0.5108394432553927,
"velocity": -1.5325183297661784
},
{
"acceleration": -2.9999999999999973,
"curvature": 0.00012003369011264449,
"pose": {
"rotation": {
"radians": 3.141394221280561
},
"translation": {
"x": 2.1050896042890312,
"y": 2.7069397387178853
}
},
"time": 0.5606002520018711,
"velocity": -1.6818007560056136
},
{
"acceleration": -2.9999999999999987,
"curvature": 8.653433875801926e-05,
"pose": {
"rotation": {
"radians": 3.1413853324205436
},
"translation": {
"x": 2.1921263641546416,
"y": 2.7069220599206822
}
},
"time": 0.61016157722246,
"velocity": -1.83048473166738
},
{
"acceleration": -0.4460371651359117,
"curvature": 6.23208443849595e-05,
"pose": {
"rotation": {
"radians": 3.1413784461683427
},
"translation": {
"x": 2.2855984322035723,
"y": 2.70690234177743
}
},
"time": 0.6592509869069211,
"velocity": -1.9777529607207631
},
{
"acceleration": -0.00013001306469553498,
"curvature": 4.427667320236232e-05,
"pose": {
"rotation": {
"radians": 3.1413732128938583
},
"translation": {
"x": 2.384702005705256,
"y": 2.7068808390128254
}
},
"time": 0.7090801790063478,
"velocity": -1.9999786323058042
},
{
"acceleration": -0.00010221120618436769,
"curvature": 3.0296431131713503e-05,
"pose": {
"rotation": {
"radians": 3.1413693760180825
},
"translation": {
"x": 2.488486691765498,
"y": 2.706857852805916
}
},
"time": 0.7609729901973301,
"velocity": -1.9999853790492228
},
{
"acceleration": -8.630495903398899e-05,
"curvature": 1.8923152416831067e-05,
"pose": {
"rotation": {
"radians": 3.141366753967767
},
"translation": {
"x": 2.5958848253591986,
"y": 2.7068337214992324
}
},
"time": 0.8146723772333567,
"velocity": -1.9999908677283431
},
{
"acceleration": -7.905871815681127e-05,
"curvature": 9.100099462330225e-06,
"pose": {
"rotation": {
"radians": 3.1413652263644827
},
"translation": {
"x": 2.705740787363081,
"y": 2.7068088113079156
}
},
"time": 0.8696005453591729,
"velocity": -1.999995608301643
},
{
"acceleration": 7.905871816080785e-05,
"curvature": -1.400165013110477e-16,
"pose": {
"rotation": {
"radians": 3.14136472459124
},
"translation": {
"x": 2.8168403225884173,
"y": 2.706783507028846
}
},
"time": 0.9251503754015092,
"velocity": -2.0
},
{
"acceleration": 8.630495903398891e-05,
"curvature": -9.10009946261995e-06,
"pose": {
"rotation": {
"radians": 3.1413652263644827
},
"translation": {
"x": 2.9279398578137545,
"y": 2.7067582027497767
}
},
"time": 0.9807002054438461,
"velocity": -1.9999956083016428
},
{
"acceleration": 0.00010221120618436769,
"curvature": -1.8923152417151388e-05,
"pose": {
"rotation": {
"radians": 3.141366753967767
},
"translation": {
"x": 3.037795819817637,
"y": 2.706733292558459
}
},
"time": 1.0356283735696623,
"velocity": -1.999990867728343
},
{
"acceleration": 0.00013001306469981463,
"curvature": -3.029643113208914e-05,
"pose": {
"rotation": {
"radians": 3.1413693760180825
},
"translation": {
"x": 3.1451939534113373,
"y": 2.7067091612517755
}
},
"time": 1.089327760605689,
"velocity": -1.9999853790492226
},
{
"acceleration": 0.4460371651358719,
"curvature": -4.4276673202827184e-05,
"pose": {
"rotation": {
"radians": 3.1413732128938587
},
"translation": {
"x": 3.248978639471579,
"y": 2.706686175044866
}
},
"time": 1.141220571796671,
"velocity": -1.9999786323058037
},
{
"acceleration": 3.0,
"curvature": -6.232084438556178e-05,
"pose": {
"rotation": {
"radians": 3.1413784461683427
},
"translation": {
"x": 3.348082212973263,
"y": 2.7066646722802616
}
},
"time": 1.1910497638960977,
"velocity": -1.9777529607207647
},
{
"acceleration": 3.0,
"curvature": -8.653433875883054e-05,
"pose": {
"rotation": {
"radians": 3.141385332420544
},
"translation": {
"x": 3.441554281022194,
"y": 2.7066449541370092
}
},
"time": 1.240139173580559,
"velocity": -1.8304847316673811
},
{
"acceleration": 3.0,
"curvature": -0.0001200336901137763,
"pose": {
"rotation": {
"radians": 3.1413942212805614
},
"translation": {
"x": 3.5285910408878047,
"y": 2.706627275339806
}
},
"time": 1.289700498801148,
"velocity": -1.6818007560056139
},
{
"acceleration": 3.0,
"curvature": -0.00016744479107760245,
"pose": {
"rotation": {
"radians": 3.1414055755959565
},
"translation": {
"x": 3.6085645980358834,
"y": 2.7066118348681263
}
},
"time": 1.339461307547626,
"velocity": -1.5325183297661795
},
{
"acceleration": 2.9999999999999982,
"curvature": -0.0002354532792926562,
"pose": {
"rotation": {
"radians": 3.1414199859590046
},
"translation": {
"x": 3.681052284161301,
"y": 2.7065987666653504
}
},
"time": 1.389180580005266,
"velocity": -1.3833605123932597
},
{
"acceleration": 3.000000000000001,
"curvature": -0.0003329276465958544,
"pose": {
"rotation": {
"radians": 3.1414381574184933
},
"translation": {
"x": 3.74586597522073,
"y": 2.706588130347897
}
},
"time": 1.4386908821631037,
"velocity": -1.234829605919746
},
{
"acceleration": 3.0,
"curvature": -0.0006437780575684631,
"pose": {
"rotation": {
"radians": 3.1414883878132813
},
"translation": {
"x": 3.8530675054737262,
"y": 2.706573964454593
}
},
"time": 1.5373231214068195,
"velocity": -0.9389328881885984
},
{
"acceleration": 3.0,
"curvature": -0.0008973042718742622,
"pose": {
"rotation": {
"radians": 3.1415535590517267
},
"translation": {
"x": 3.9344691669279888,
"y": 2.7065679745272258
}
},
"time": 1.6412858660395155,
"velocity": -0.6270446542905104
},
{
"acceleration": 3.0,
"curvature": -1.4210854715202004e-14,
"pose": {
"rotation": {
"radians": -3.14159265358979
},
"translation": {
"x": 4.000000000000001,
"y": 2.7065670140576925
}
},
"time": 1.850300750803019,
"velocity": -0.0
}
]